Task,compiler,fix_examples
7,1,2
5,2,0
3,3,0
6,1,1
10,2,2
9,2,2
8,2,0
1,3,2
4,2,0
1,3,0
10,3,2
3,3,0
2,3,0
3,0,0
5,0,0
1,0,0
8,0,0
10,0,0
1,3,3
3,3,3
8,2,3
4,2,1
7,2,0
2,3,0
3,0,0
6,2,2
7,2,0
9,1,1
9,1,0
10,2,3
7,0,3
6,1,3
1,3,1
5,2,3
8,1,3
10,1,3
1,3,0
6,0,3
4,1,0
7,2,3
10,1,3
9,1,3
5,0,3
6,2,3
5,3,2
1,3,3
10,1,1
3,1,1
6,1,3
8,1,1
1,3,0
6,1,1
5,3,0
9,0,2
9,1,0
5,3,2
3,3,0
10,3,0
7,0,3
3,3,0
6,2,2
1,3,0
5,3,0
8,3,0
10,3,3
6,3,3
4,3,1
7,3,0
1,3,1
