name,count
err_init_conversion_failed,101
err_expected_unqualified_id,96
err_expected_expression,87
err_typecheck_invalid_operands,74
err_expected,74
err_typecheck_nonviable_condition,73
err_bad_variable_name,70
err_expected_semi_after_stmt,68
err_expected_either,67
err_expected_semi_declaration,63
err_expected_member_name_or_semi,62
err_typecheck_convert_incompatible,61
err_expected_type,61
err_expected_lparen_after_type,60
err_bound_member_function,59
err_redefinition_different_kind,58
err_expected_lparen_after,57
err_typecheck_decl_incomplete_type,57
err_ovl_no_viable_function_in_call,56
err_expected_semi_after_expr,56
err_typecheck_bool_condition,56
err_invalid_token_after_toplevel_declarator,56
err_ovl_no_viable_function_in_init,55
err_ref_non_value,55
err_member_decl_does_not_match,54
err_expected_after,54
err_expected_semi_for,54
err_missing_param,53
err_expected_qualified_after_typename,52
err_expected_class_name,52
err_expected_semi_decl_list,51
err_expected_template_parameter,51
err_expected_comma_greater,50
err_template_decl_ref,49
err_default_init_const,49
err_typename_requires_specqual,49
err_unexpected_typedef,48
err_ovl_unresolvable,47
err_expected_lambda_body,46
err_redefinition_different_type,45
err_template_missing_args,45
err_destructor_tilde_identifier,44
err_typecheck_comparison_of_pointer_integer,42
err_redefinition,42
err_typecheck_call_not_function,42
err_reference_var_requires_init,42
err_expected_lbrace_after_base_specifiers,42
err_main_global_variable,42
err_unknown_typename,41
err_field_incomplete,41
err_missing_type_specifier,41
err_static_assert_failed,41
err_expected_end_of_enumerator,41
err_addr_ovl_no_viable,40
err_expected_type_name_after_typename,40
err_expected_capture,39
err_unknown_type_or_class_name_suggest,38
ext_out_of_line_declaration,38
err_expected_string_literal,38
err_virtual_non_function,38
err_bad_cxx_cast_generic,37
err_unexpected_friend,37
err_undeclared_var_use,36
err_typecheck_expression_not_modifiable_lvalue,36
err_expected_catch,35
err_no_member,34
err_typecheck_invalid_lvalue_addrof,34
err_typecheck_unary_expr,34
err_var_spec_no_template,34
err_unexpected_namespace,34
err_typecheck_incomplete_array_needs_initializer,34
err_expected_fn_body,34
err_template_instantiate_undefined,34
err_template_member,33
err_excess_initializers,33
err_typename_nested_not_found,32
err_invalid_non_static_member_use,32
err_template_variable_noparams,32
err_typecheck_cond_incompatible_operands,32
err_function_template_spec_no_match,32
err_undeclared_var_use_suggest,31
err_typecheck_indirection_requires_pointer,31
err_member_call_without_object,31
err_ovl_diff_return_type,31
err_anon_type_definition,31
err_ovl_no_viable_conversion_in_cast,30
err_expected_comma_or_rsquare,30
err_template_nontype_parm_bad_type,30
err_using_requires_qualname,30
err_invalid_token_after_declarator_suggest_equal,29
err_template_defn_explicit_instantiation,29
err_ovl_no_viable_oper,29
err_reference_bind_failed,29
err_builtin_fn_use,29
err_expected_less_after,29
err_func_returning_array_function,28
err_typename_missing,28
err_typecheck_member_reference_struct_union,28
err_ovl_no_viable_object_call,28
err_expected_init_in_condition,27
err_ovl_deleted_special_init,27
err_lvalue_reference_bind_to_unrelated,27
err_typecheck_comparison_of_distinct_pointers,27
err_expected_semi_after_static_assert,27
err_template_param_shadow,26
err_template_spec_needs_header,26
err_explicit_instantiation_not_known,26
err_redefinition_different_typedef,26
err_attribute_wrong_number_arguments,26
err_default_arg_unparsed,26
err_template_arg_list_different_arity,25
err_member_qualification,25
err_typecheck_call_too_many_args,25
err_invalid_decl_spec_combination,25
err_ovl_no_viable_member_function_in_call,25
err_ovl_ambiguous_call,25
err_member_function_initialization,24
err_unknown_nested_typename_suggest,23
err_lvalue_reference_bind_to_temporary,23
err_template_qualified_declarator_no_match,23
err_invalid_constexpr_member,23
err_decl_negative_array_size,23
err_typecheck_call_too_few_args,22
err_override_exception_spec,22
err_ovl_no_oper,21
err_invalid_declarator_in_function,21
err_undeclared_use,21
err_explicit_instantiation_with_definition,21
err_access,21
err_constexpr_static_mem_var_requires_init,21
err_no_member_suggest,20
err_expected_class_or_namespace,20
err_illegal_decl_mempointer_to_void,20
err_forward_ref_enum,20
err_ovl_no_conversion_in_cast,20
err_class_on_template_template_param,20
err_conditional_void_nonvoid,20
err_use_of_tag_name_without_tag,19
err_template_arg_must_be_type,19
err_missing_exception_specification,19
err_constexpr_var_requires_const_init,19
err_incomplete_nested_name_spec,19
err_duplicate_member,18
err_invalid_declarator_global_scope,18
err_qualified_param_declarator,18
err_abstract_type_in_decl,18
err_typecheck_pointer_arith_function_type,18
err_unexpected_unqualified_id,17
err_invalid_sign_spec,17
err_typecheck_illegal_increment_decrement,17
err_operator_overload_must_be,17
err_bad_reinterpret_cast_small_int,17
err_constructor_return_type,17
err_array_init_not_init_list,17
err_bad_static_cast_pointer_nonpointer,17
err_array_size_non_int,17
err_member_redeclared,17
err_var_spec_no_template_but_method,17
err_invalid_width_spec,16
err_invalid_incomplete_type_use,16
err_member_def_does_not_match_ret_type,16
err_template_arg_must_be_expr,16
err_typecheck_assign_const,16
err_sizeof_alignof_incomplete_type,16
err_auto_not_allowed,16
err_templated_using_directive_declaration,16
err_expected_semi_after_namespace_name,16
err_typename_invalid_storageclass,15
err_expected_member_or_base_name,15
err_illegal_initializer,15
err_no_member_template_suggest,15
err_typedef_not_identifier,15
err_partial_spec_fully_specialized,15
err_bad_parameter_name,14
err_unexpanded_parameter_pack,14
err_misplaced_ellipsis_in_declaration,14
err_expected_parentheses_around_typename,14
err_typecheck_non_object_not_modifiable_lvalue,14
err_destructor_class_name,14
err_typecheck_subscript_value,14
err_redeclaration_different_type,14
err_reference_to_local_var_in_enclosing_function,14
err_expected_namespace_name,14
err_using_decl_conflict_reverse,14
err_member_name_of_class,13
ext_return_missing_expr,13
err_template_kw_refers_to_non_template,13
err_different_return_type_for_overriding_virtual_function,13
err_destructor_return_type,13
err_capture_does_not_name_variable,13
err_delete_operand,13
err_static_assert_expression_is_not_constant,13
err_constructor_redeclared,13
err_template_param_list_matches_nontemplate,13
err_illegal_decl_array_of_functions,13
err_typecheck_converted_constant_expression,13
err_allocation_of_abstract_type,13
err_typecheck_sub_ptr_compatible,13
err_using_decl_can_not_refer_to_namespace,13
err_sizeof_parameter_pack,13
err_typecheck_member_reference_type,12
err_member_extra_qualification,12
err_incomplete_base_class,12
err_destructor_with_params,12
err_attribute_argument_out_of_bounds,12
err_operator_overload_needs_class_or_enum,12
err_typecheck_subscript_not_integer,12
err_typecheck_member_reference_arrow,12
err_sizeof_alignof_function_type,12
err_expr_not_cce,12
err_invalid_declarator_scope,12
err_main_arg_wrong,12
err_expected_while,12
err_attributes_not_allowed,12
err_main_returns_nonint,12
err_typecheck_pointer_arith_void_type,12
err_no_template_suggest,11
err_missing_dependent_template_keyword,11
err_typename_nested_not_type,11
err_storageclass_invalid_for_member,11
err_missing_default_ctor,11
err_expected_init_in_condition_lparen,11
err_undeclared_label_use,11
err_address_of_label_outside_fn,11
err_bad_memptr_rhs,11
err_bad_memptr_lhs,11
err_capture_non_automatic_variable,11
err_template_arg_not_convertible,11
err_expected_parameter_pack,11
err_nested_name_spec_non_tag,11
err_typecheck_statement_requires_integer,11
err_attribute_wrong_decl_type,11
err_not_tag_in_scope,10
err_illegal_decl_pointer_to_reference,10
err_typecheck_member_reference_suggestion,10
err_explicit_spec_non_template,10
err_pack_expansion_without_parameter_packs,10
err_reference_to_void,10
ext_return_has_expr,10
err_func_def_incomplete_result,10
err_conv_function_return_type,10
err_member_function_call_bad_cvr,10
err_inline_non_function,10
err_uninitialized_member_in_ctor,10
err_enumerator_list_missing_comma,10
err_ambiguous_reference,10
err_access_ctor,10
err_bad_dynamic_cast_incomplete,10
err_ice_not_integral,10
err_conv_function_not_member,10
err_destructor_not_member,10
err_mismatched_exception_spec,10
err_typecheck_lvalue_casts_not_supported,10
err_typecheck_call_too_few_args_one,9
err_template_tag_noparams,9
err_use_with_wrong_tag,9
err_reference_bind_drops_quals,9
err_in_class_initializer_non_const,9
err_illegal_decl_array_incomplete_type,9
err_illegal_decl_array_of_references,9
err_invalid_qualified_constructor,9
err_bad_cxx_cast_rvalue,9
err_invalid_this_use,9
err_invalid_operator_on_type,9
err_new_incomplete_type,9
err_friend_decl_spec,9
err_lambda_impcap,9
err_init_list_bin_op,9
err_base_must_be_class,9
err_template_spec_extra_headers,9
err_trailing_return_without_auto,9
err_auto_var_deduction_failure,9
err_conflicting_types,9
err_static_block_func,9
ext_init_list_variable_narrowing,9
err_mem_init_not_member_or_class,8
err_function_parameter_pack_without_parameter_packs,8
err_type_defined_in_type_specifier,8
err_ellipsis_in_declarator_not_parameter,8
err_constexpr_return_missing_expr,8
err_conv_function_with_params,8
err_illegal_decl_mempointer_to_reference,8
ext_constexpr_function_never_constant_expr,8
err_variable_object_no_init,8
err_operator_new_param_type,8
err_typecheck_call_too_few_args_suggest,8
err_static_data_member_not_allowed_in_local_class,8
err_typecheck_call_too_few_args_at_least,8
err_default_special_members,8
err_typecheck_sclass_fscope,8
err_ovl_no_viable_subscript,8
err_template_param_different_kind,8
err_incomplete_member_access,8
err_template_recursion_depth_exceeded,8
err_typecheck_ambiguous_condition,8
err_illegal_decl_mempointer_in_nonclass,7
err_typecheck_addrof_temporary,7
err_template_param_list_different_arity,7
err_constexpr_var_non_literal,7
err_invalid_member_use_in_static_method,7
err_qualified_typedef_declarator,7
err_reference_without_init,7
err_this_capture,7
err_ovl_ambiguous_oper_binary,7
err_partial_spec_args_match_primary_template,7
err_bad_static_cast_member_pointer_nonmp,7
err_not_direct_base_or_virtual,7
err_ovl_deleted_special_oper,7
err_constructor_bad_name,7
err_invalid_thread,7
err_implicit_instantiate_member_undefined,7
err_lambda_missing_parens,7
err_different_language_linkage,7
err_subscript_function_type,7
err_qualified_member_of_unrelated,7
err_invalid_constexpr_var_decl,7
err_invalid_reference_qualifier_application,6
err_type_defined_in_result_type,6
err_template_instantiate_within_definition,6
err_multiple_template_declarators,6
err_unexpected_colon_in_nested_name_spec,6
err_ref_qualifier_overload,6
err_nested_name_spec_is_not_class,6
err_constructor_byvalue_arg,6
err_template_arg_must_be_template,6
err_void_param_qualified,6
err_expected_external_declaration,6
err_friend_invalid_in_context,6
err_scoped_enum_missing_identifier,6
err_bad_new_type,6
err_typecheck_call_too_many_args_suggest,6
err_bool_redeclaration,6
err_bad_dynamic_cast_not_class,6
err_template_template_parm_no_parms,6
err_attribute_not_type_attr,6
err_qualified_friend_not_found,6
err_ambiguous_member_multiple_subobject_types,6
err_template_param_pack_must_be_last_template_parameter,6
err_lvalue_to_rvalue_ref,6
err_literal_operator_param,6
err_typecheck_sclass_func,6
err_default_template_template_parameter_not_template,6
err_multiple_final_overriders,6
err_reference_bind_init_list,6
err_ovl_ambiguous_member_call,6
err_conv_function_redeclared,6
err_template_nontype_parm_different_type,6
err_extraneous_token_before_semi,5
err_expected_statement,5
err_invalid_storage_class_in_func_decl,5
err_function_definition_not_allowed,5
err_missing_end_of_definition,5
err_stmtexpr_file_scope,5
err_unknown_template_name,5
err_access_decl,5
err_typename_invalid_constexpr,5
err_non_type_template_in_nested_name_specifier,5
err_ctor_init_missing_comma,5
err_template_arg_must_be_type_suggest,5
err_anonymous_record_with_type,5
err_explicit_non_function,5
err_destructor_template_id,5
err_alias_declaration_not_identifier,5
err_using_decl_nested_name_specifier_is_not_class,5
err_friend_decl_defines_type,5
err_template_arg_not_decl_ref,5
err_function_template_partial_spec,5
err_break_not_in_loop_or_switch,5
err_static_non_static,5
err_lvalue_reference_bind_to_initlist,5
err_bad_dynamic_cast_not_ptr,5
err_base_class_has_flexible_array_member,5
err_invalid_use_of_function_type,5
err_param_default_argument_nonfunc,5
err_bitfield_has_zero_width,5
err_not_integral_type_bitfield,5
err_non_static_static,5
err_call_function_incomplete_return,5
err_function_specialization_in_class,5
err_incomplete_array_member_init,5
err_vla_decl_in_file_scope,5
err_introducing_special_friend,5
err_increment_decrement_enum,5
err_attribute_argument_type,5
err_typecheck_call_too_many_args_one,5
err_expr_not_ice,5
err_bad_cstyle_cast_overload,5
err_init_reference_member_uninitialized,5
err_attribute_too_few_arguments,5
err_enum_class_reference,5
err_operator_overload_post_incdec_must_be_int,5
err_continue_not_in_loop,5
err_catch_incomplete,5
err_anonymous_union_not_static,5
err_template_arg_method,5
err_ovl_no_viable_literal_operator,5
err_dependent_nested_name_spec,5
err_realimag_invalid_type,5
err_member_def_undefined_record,5
err_partial_spec_ordering_ambiguous,5
err_deleted_override,5
err_template_arg_no_ref_bind,5
err_for_range_invalid,5
err_illegal_decl_reference_to_reference,4
err_param_redefinition,4
err_typename_invalid_functionspec,4
err_only_constructors_take_base_inits,4
err_anonymous_record_with_function,4
err_nonstatic_member_out_of_line,4
err_void_only_param,4
err_array_static_outside_prototype,4
err_static_out_of_line,4
err_constexpr_body_no_return,4
err_ref_qualifier_constructor,4
err_template_typedef,4
err_constructor_cannot_be,4
err_expected_star_this_capture,4
err_member_reference_needs_call,4
err_operator_new_delete_invalid_result_type,4
err_type_defined_in_param_type,4
err_unqualified_pointer_member_function,4
err_nested_non_static_member_use,4
err_operator_new_delete_too_few_parameters,4
err_unexpected_token_in_nested_name_spec,4
err_tag_definition_of_typedef,4
err_dtor_expr_without_call,4
err_expected_equal_designator,4
err_param_default_argument_references_param,4
err_sizeof_pack_no_pack_name,4
err_in_class_initializer_non_constant,4
err_illegal_initializer_type,4
err_union_member_of_reference_type,4
err_for_range_identifier,4
err_implicit_empty_initializer,4
err_access_dtor_var,4
err_call_incomplete_argument,4
err_template_arg_template_params_mismatch,4
ext_cce_narrowing,4
err_decrement_bool,4
err_literal_operator_bad_param_count,4
err_circular_inheritance,4
err_pseudo_dtor_destructor_non_type,4
err_invalid_form_pointer_member_function,4
err_compound_qualified_function_type,4
err_bad_cxx_cast_scalar_to_vector_different_size,4
err_typecheck_call_too_few_args_at_least_one,4
err_literal_operator_template_with_params,4
err_array_too_large,4
err_explicit_specialization_inconsistent_storage_class,4
err_ovl_deleted_init,4
err_using_decl_conflict,4
err_exception_spec_not_parsed,4
err_pseudo_dtor_type_mismatch,4
err_typecheck_array_not_modifiable_lvalue,4
err_in_class_initializer_literal_type,4
err_typecheck_vector_not_convertable,4
err_atomic_builtin_must_be_pointer,4
err_typecheck_arithmetic_incomplete_type,4
err_first_argument_to_va_arg_not_of_type_va_list,4
err_for_range_storage_class,4
err_tag_reference_conflict,4
err_initializer_string_for_char_array_too_long,4
err_typename_identifiers_only,4
err_ovl_ambiguous_object_call,4
err_auto_var_deduction_failure_from_init_list,4
err_enum_invalid_underlying,4
err_qualified_catch_declarator,4
err_param_with_void_type,3
err_function_declared_typedef,3
err_template_spec_syntax_non_template,3
err_static_data_member_not_allowed_in_anon_struct,3
err_typecheck_invalid_restrict_not_pointer,3
err_upcast_to_inaccessible_base,3
err_ident_in_dtor_not_a_type,3
err_template_unnamed_class,3
err_mem_init_not_member_or_class_suggest,3
err_conv_function_with_complex_decl,3
err_case_not_in_switch,3
err_label_end_of_compound_statement,3
err_covariant_return_not_derived,3
err_init_capture_multiple_expressions,3
err_explicit_instantiation_nontemplate_type,3
err_definition_of_implicitly_declared_member,3
err_namespace_nonnamespace_scope,3
err_friend_not_first_in_declaration,3
err_explicit_instantiation_storage_class,3
err_illegal_decl_array_of_auto,3
err_constexpr_redecl_mismatch,3
err_tagless_friend_type_template,3
err_bad_cxx_cast_qualifiers_away,3
err_covariant_return_type_class_type_more_qualified,3
err_operator_delete_param_type,3
err_format_attribute_not,3
err_access_dtor_vbase,3
err_anonymous_struct_not_member,3
err_cannot_form_pointer_to_member_of_reference_type,3
err_invalid_qualified_destructor,3
err_default_not_in_switch,3
err_attribute_invalid_vector_type,3
err_alias_declaration_specialization,3
err_defaulted_special_member_return_type,3
err_non_extern_extern,3
err_destructor_name,3
err_ovl_ambiguous_init,3
err_bitfield_has_negative_width,3
err_typecheck_member_reference_unknown,3
err_non_thread_thread,3
err_lambda_decl_ref_not_modifiable_lvalue,3
err_literal_operator_string_not_empty,3
err_block_return_missing_expr,3
err_using_namespace_in_class,3
err_constexpr_non_literal_param,3
err_thread_non_thread,3
err_inline_decl_follows_def,3
err_constexpr_local_var_no_init,3
err_lambda_in_constant_expression,3
err_constexpr_local_var_non_literal_type,3
err_template_arg_field,3
err_friend_decl_with_def_arg_must_be_def,3
err_reference_has_multiple_inits,3
err_anonymous_union_with_storage_spec,3
err_noexcept_needs_constant_expression,3
ext_init_list_constant_narrowing,3
err_param_default_argument_missing_name,3
err_throw_incomplete_ptr,3
err_template_spec_needs_template_parameters,3
err_param_default_argument_references_local,3
err_not_found_by_two_phase_lookup,3
err_cannot_pass_to_vararg_format,3
err_template_arg_nontype_ambig,3
err_duplicate_case,3
err_deleted_function_use,3
err_asm_invalid_lvalue_in_output,3
err_no_matching_local_friend,3
err_return_block_has_expr,3
err_template_parameter_pack_non_pack,3
err_no_suitable_delete_member_function_found,3
err_function_marked_override_not_overriding,3
err_subscript_incomplete_type,3
err_bad_cxx_cast_unrelated_class,3
err_ovl_ambiguous_conversion_in_cast,3
err_extern_non_extern,3
err_value_init_for_array_type,3
err_mode_not_primitive,3
err_extraneous_rparen_in_condition,2
err_function_is_not_record,2
err_l_square_l_square_not_attribute,2
err_constexpr_no_declarators,2
err_qualified_member_nonclass,2
err_template_spec_decl_class_scope,2
err_invalid_constexpr,2
err_incomplete_object_call,2
err_non_virtual_pure,2
err_inline_declaration_block_scope,2
err_redefinition_of_enumerator,2
err_duplicate_base_class,2
err_block_extern_cant_init,2
err_throw_incomplete,2
err_single_decl_assign_in_for_range,2
err_explicit_instantiation_of_typedef,2
err_operator_overload_default_arg,2
err_extraneous_closing_brace,2
err_template_member_noparams,2
err_bad_dynamic_cast_not_ref_or_ptr,2
err_destructor_tilde_scope,2
err_template_linkage,2
err_anonymous_record_nonpublic_member,2
err_attribute_argument_n_type,2
err_templated_invalid_declaration,2
err_qualified_friend_def,2
err_paren_sizeof_parameter_pack,2
err_explicit_out_of_class,2
err_ctor_dtor_returns_void,2
err_typecheck_invalid_lvalue_addrof_addrof_function,2
err_temp_copy_no_viable,2
err_incomplete_in_exception_spec,2
err_explicit_non_ctor_or_conv_function,2
err_need_header_before_typeid,2
err_bad_const_cast_dest,2
err_asm_invalid_output_constraint,2
err_exception_spec_in_typedef,2
err_pseudo_dtor_call_with_args,2
err_template_inside_local_class,2
err_id_after_template_in_nested_name_spec,2
err_ref_qualifier_destructor,2
err_destructor_redeclared,2
err_flexible_array_init,2
err_covariant_return_type_different_qualifications,2
err_dynamic_and_noexcept_specification,2
err_typecheck_incomplete_type_not_modifiable_lvalue,2
err_member_decl_does_not_match_suggest,2
err_template_arg_not_address_constant,2
err_default_delete_in_multiple_declaration,2
err_enum_template,2
err_using_decl_can_not_refer_to_class_member,2
err_implicit_object_parameter_init,2
err_using_typename_non_type,2
err_enumerator_unnamed_no_def,2
err_asm_invalid_input_constraint,2
err_ovl_static_nonstatic_member,2
err_using_decl_template_id,2
err_ovl_deleted_conversion_in_cast,2
err_anonymous_record_member_redecl,2
err_static_downcast_via_virtual,2
err_typecheck_address_of,2
err_brackets_go_after_unqualified_id,2
err_expected_fold_operator,2
err_using_directive_member_suggest,2
err_destructor_expr_type_mismatch,2
err_init_capture_no_expression,2
err_array_static_not_outermost,2
err_declarator_need_ident,2
err_capture_default_non_local,2
override_keyword_only_allowed_on_virtual_member_functions,2
err_operator_new_delete_declared_in_namespace,2
err_mutable_nonmember,2
err_mempointer_in_nonclass_type,2
err_literal_operator_outside_namespace,2
err_literal_operator_template,2
err_using_decl_nested_name_specifier_is_not_base_class,2
err_using_directive_suggest,2
err_template_arg_ref_bind_ignores_quals,2
err_auto_fn_return_void_but_not_auto,2
err_auto_fn_no_return_but_not_auto,2
err_switch_into_protected_scope,2
err_explicit_instantiation_inline,2
err_thread_dynamic_init,2
err_vla_decl_has_static_storage,2
err_friend_def_in_local_class,2
err_auto_fn_used_before_defined,2
err_operator_overload_variadic,2
err_static_overrides_virtual,2
err_template_arg_not_address_of,2
err_pointer_to_member_call_drops_quals,2
err_auto_var_init_multiple_expressions,2
err_template_arg_untyped_null_constant,2
err_operator_overload_must_be_member,2
err_typecheck_field_variable_size,2
err_unsupported_string_concat,2
err_multiple_mem_union_initialization,2
err_thread_non_global,2
err_format_attribute_requires_variadic,2
err_defaulted_special_member_params,2
err_defaulted_copy_assign_not_ref,2
err_explicit_instantiation_duplicate,2
err_explicit_instantiation_undefined_func_template,2
err_constexpr_non_literal_return,2
err_invalid_qualified_function_type,2
err_ref_init_ambiguous,2
err_offsetof_record_type,2
err_covariant_return_incomplete,2
err_specialize_member_of_template,2
err_for_range_incomplete_type,2
err_cxx11_attribute_forbids_ellipsis,2
err_array_new_needs_size,2
err_alias_to_undefined,2
err_implied_std_initializer_list_not_found,2
err_early_catch_all,2
err_reference_capture_with_reference_default,2
err_attribute_cleanup_arg_not_function,2
err_conv_function_to_function,2
err_alignment_dependent_typedef_name,2
err_typecheck_incomplete_tag,2
err_specialization_after_instantiation,2
err_explicit_instantiation_unqualified_wrong_namespace,2
err_auto_fn_different_deductions,2
err_field_instantiates_to_function,2
err_incomplete_typeid,2
err_alignas_underaligned,2
err_pack_expansion_length_conflict,2
err_new_abi_tag_on_redeclaration,2
err_typecheck_vector_not_convertable_non_scalar,2
err_typecheck_cond_incompatible_operands_null,2
err_ovl_ambiguous_oper_unary,2
err_decl_attribute_invalid_on_stmt,2
err_addr_ovl_no_qualifier,2
err_enum_redeclare_type_mismatch,2
err_incorrect_defaulted_exception_spec,2
err_auto_var_init_no_expression,2
err_declspec_after_virtspec,2
err_alias_is_definition,2
err_access_field_ctor,2
err_redefinition_different_namespace_alias,2
err_typecheck_missing_return_type_incompatible,2
err_constant_integer_arg_type,2
err_excess_initializers_in_char_array_initializer,2
err_builtin_func_cast_more_than_one_arg,2
err_this_captured_by_reference,2
err_expected_semi_after_attribute_list,2
err_sizeof_alignof_typeof_bitfield,2
err_auto_new_requires_ctor_arg,2
err_constexpr_local_var_static,2
err_anonymous_record_bad_member,1
err_expected_class_name_not_template,1
err_virtual_out_of_class,1
err_expected_case_before_expression,1
err_array_star_outside_prototype,1
err_bad_dynamic_cast_not_polymorphic,1
err_standalone_class_nested_name_specifier,1
err_expected_field_designator,1
err_unspecified_size_with_static,1
err_invalid_complex_spec,1
err_template_arg_address_of_non_pointer,1
err_base_init_does_not_name_class,1
err_constexpr_tag,1
err_language_linkage_spec_unknown,1
err_template_param_pack_default_arg,1
err_deleted_non_function,1
err_flexible_array_has_nontrivial_dtor,1
err_dup_virtual,1
err_typename_refers_to_non_type_template,1
err_typedef_not_bitfield,1
err_destructor_cannot_be,1
err_c99_array_usage_cxx,1
err_attribute_weakref_without_alias,1
err_pack_expansion_member_init,1
err_attribute_weakref_not_static,1
err_storage_class_for_static_member,1
err_template_kw_missing,1
err_operator_overload_static,1
err_operator_new_default_arg,1
err_for_range_expected_decl,1
err_anonymous_record_with_static,1
err_offsetof_incomplete_type,1
err_extern_c_global_conflict,1
err_blocks_disable,1
err_mutable_const,1
err_right_angle_bracket_equal_needs_space,1
err_downcast_from_inaccessible_base,1
err_reference_bind_to_bitfield,1
err_lambda_unevaluated_operand,1
err_destructor_variadic,1
err_incomplete_type_used_in_type_trait_expr,1
err_member_redeclared_in_instantiation,1
err_typename_nested_not_found_enable_if,1
err_bad_lvalue_to_rvalue_cast,1
err_init_incomplete_type,1
err_template_arg_reference_var,1
err_delete_incomplete_class_type,1
err_typecheck_invalid_restrict_invalid_pointee,1
err_flexible_array_virtual_base,1
err_cxx11_attribute_repeated,1
err_defaulted_special_member_copy_const_param,1
err_alignment_not_power_of_two,1
err_array_star_in_function_definition,1
err_constexpr_virtual,1
err_duplicate_virt_specifier,1
err_mutable_function,1
err_conv_function_variadic,1
err_explicit_instantiation_constexpr,1
err_lambda_capture_default_arg,1
err_memptr_conv_via_virtual,1
err_class_marked_final_used_as_base,1
err_asm_unknown_register_name,1
err_conditional_ambiguous,1
err_asm_invalid_global_var_reg,1
err_static_not_bitfield,1
err_friend_decl_does_not_match,1
err_for_range_dereference,1
err_destructor_typedef_name,1
err_template_spec_redecl_out_of_scope,1
err_friend_decl_with_def_arg_redeclared,1
err_mismatched_visibility,1
err_mutable_reference,1
err_new_array_init_args,1
err_typecheck_nonviable_condition_incomplete,1
err_duplicate_mangled_name,1
err_partial_specialization_friend,1
err_constexpr_main,1
err_array_init_wide_string_into_char,1
err_only_enums_have_underlying_types,1
err_range_on_array_parameter,1
err_inline_main,1
err_enum_redeclare_scoped_mismatch,1
err_static_main,1
err_alignof_member_of_incomplete_type,1
err_constexpr_virtual_base,1
err_format_attribute_result_not,1
err_auto_different_deductions,1
err_expected_template,1
err_attr_tlsmodel_arg,1
err_bad_cxx_cast_bitfield,1
ext_init_list_type_narrowing,1
err_using_dependent_value_is_type,1
err_addr_ovl_ambiguous,1
err_designator_for_scalar_init,1
err_typecheck_invalid_restrict_not_pointer_noarg,1
err_argument_required_after_attribute,1
err_typecheck_converted_constant_expression_disallowed,1
err_return_init_list,1
err_reference_to_local_var_in_enclosing_lambda,1
err_catch_incomplete_ref,1
err_asm_invalid_lvalue_in_input,1
err_attribute_weak_static,1
err_ovl_deleted_member_call,1
err_invalid_cpu_supports,1
err_bad_static_cast_overload,1
err_pack_expansion_length_conflict_multilevel,1
err_anon_bitfield_has_negative_width,1
err_catch_incomplete_ptr,1
err_out_of_line_constructor_template_id,1
err_aligned_attribute_argument_not_int,1
err_inline_namespace_alias,1
err_template_arg_object_no_linkage,1
err_template_param_default_arg_missing,1
err_ambiguous_delete_operand,1
err_not_integral_type_anon_bitfield,1
err_parameters_retval_cannot_have_fp16_type,1
err_argument_invalid_range,1
err_constexpr_dtor,1
err_duplicate_case_differing_expr,1
err_literal_operator_string_prefix,1
err_invalid_string_udl,1
err_attribute_invalid_size,1
err_virtual_member_function_template,1
err_base_init_direct_and_virtual,1
err_abi_tag_on_redeclaration,1
err_init_capture_deduction_failure_from_init_list,1
err_init_priority_object_attr,1
err_constexpr_ctor_missing_init,1
err_dereference_incomplete_type,1
err_mismatched_exception_spec_explicit_instantiation,1
err_auto_fn_virtual,1
err_no_matching_local_friend_suggest,1
err_alias_template_expansion_into_fixed_list,1
err_vla_decl_has_extern_linkage,1
err_definition_of_explicitly_defaulted_member,1
err_using_decl_constructor_not_in_direct_base,1
err_auto_new_deduction_failure,1
err_language_linkage_spec_not_ascii,1
err_access_dtor_temp,1
err_union_as_base_class,1
err_vm_decl_in_file_scope,1
err_atomic_op_needs_atomic_int_or_ptr,1
err_unexpected_namespace_attributes_alias,1
err_call_incomplete_return,1
err_template_spec_decl_friend,1
err_lambda_return_init_list,1
err_attribute_cleanup_func_must_take_one_arg,1
err_attribute_cleanup_func_arg_incompatible_type,1
err_final_function_overridden,1
err_literal_operator_id_outside_namespace,1
override_keyword_hides_virtual_member_function,1
err_fold_operator_mismatch,1
err_attribute_requires_arguments,1
err_in_class_initializer_volatile,1
err_operator_new_delete_template_too_few_parameters,1
err_template_id_not_a_type,1
err_trailing_return_in_parens,1
err_attribute_weakref_not_global_context,1
err_defaulted_special_member_variadic,1
err_operator_new_delete_declared_static,1
err_operator_new_delete_dependent_result_type,1
err_cannot_pass_to_vararg,1
err_operator_new_dependent_param_type,1
err_decltype_in_declarator,1
err_explicit_instantiation_data_member_not_instantiated,1
err_field_designator_non_aggr,1
err_typecheck_call_invalid_unary_fp,1
err_format_attribute_implicit_this_format_string,1
err_function_template_spec_ambiguous,1
err_literal_operator_extern_c,1
err_spec_member_not_instantiated,1
err_template_outside_namespace_or_class_scope,1
err_temp_copy_deleted,1
err_typecheck_call_too_many_args_at_most,1
err_type_trait_arity,1
